{
  "product": "Veritas config file",
  "version": 1.1,
  "releaseDate": "2019-08-07T00:00:00.000Z",
  "configVariables": [{
    "tutorial": true,
    "postActivity": false,
    "logging": true
  }],
  "repositories": [
    {
      "title": "Disney",
      "url": "http://co-veritas.co.uk/Veritas/Disney/",
      "noOfTiles": 10
    },
    {
      "title": "Capital Cities",
      "url": "http://co-veritas.co.uk/Veritas/Geography/",
      "noOfTiles": 13
    },
    {
      "title": "Solar System",
      "url": "http://co-veritas.co.uk/Veritas/Space/",
      "noOfTiles": 9
    }
  ]
}